com\wlhlearn\spring01\myannotation\WLHService.class
com\wlhlearn\spring01\versiontwo\WLHDispatchServlet.class
com\wlhlearn\spring01\myannotation\WLHRequestParam.class
com\wlhlearn\spring01\versionthree\LHDispatchServlet.class
com\wlhlearn\spring01\myannotation\WLHRequestMapping.class
com\wlhlearn\spring01\versionthree\Handler.class
com\wlhlearn\spring01\service\UserServiceImpl.class
com\wlhlearn\spring01\action\UserAction.class
com\wlhlearn\spring01\myannotation\WLHAutowired.class
com\wlhlearn\spring01\service\IUserService.class
com\wlhlearn\spring01\myannotation\WLHController.class
